<svg xmlns="http://www.w3.org/2000/svg" width="9" height="17" viewBox="0 0 9 17">
    <path fill-rule="evenodd" fill="#fff" d="M6.308 2.924h2.01V.011L5.55 0C2.476 0 1.777 2.175 1.777 3.563v1.942H0v3h1.777V17h3.738V8.506h2.523l.327-3h-2.85V3.741c0-.663.466-.818.793-.818"/>
</svg>
